%YAML 1.1
%TAG !u! tag:unity3d.com,2011:
--- !u!65 &1914558059
BoxCollider:
  m_ObjectHideFlags: 0
  m_CorrespondingSourceObject: {fileID: 0}
  m_PrefabInstance: {fileID: 0}
  m_PrefabAsset: {fileID: 0}
  m_GameObject: {fileID: 1149661057786838197}
  m_Material: {fileID: 0}
  m_IsTrigger: 1
  m_Enabled: 1
  serializedVersion: 2
  m_Size: {x: 56.211258, y: 105.9371, z: 56.211258}
  m_Center: {x: -18.95441, y: 49.720688, z: -0.000009536743}
--- !u!114 &1723751204796947812
MonoBehaviour:
  m_ObjectHideFlags: 0
  m_CorrespondingSourceObject: {fileID: 0}
  m_PrefabInstance: {fileID: 0}
  m_PrefabAsset: {fileID: 0}
  m_GameObject: {fileID: 1149661057786838197}
  m_Enabled: 1
  m_EditorHideFlags: 0
  m_Script: {fileID: 11500000, guid: 078da9b25d02d05409298425f127c54c, type: 3}
  m_Name: 
  m_EditorClassIdentifier: 
--- !u!1 &1149661059318594594
GameObject:
  m_ObjectHideFlags: 0
  m_CorrespondingSourceObject: {fileID: 0}
  m_PrefabInstance: {fileID: 0}
  m_PrefabAsset: {fileID: 0}
  serializedVersion: 6
  m_Component:
  - component: {fileID: 1149661059318594595}
  m_Layer: 0
  m_Name: GasBottleContainer
  m_TagString: Untagged
  m_Icon: {fileID: 0}
  m_NavMeshLayer: 0
  m_StaticEditorFlags: 0
  m_IsActive: 1
--- !u!4 &1149661059318594595
Transform:
  m_ObjectHideFlags: 0
  m_CorrespondingSourceObject: {fileID: 0}
  m_PrefabInstance: {fileID: 0}
  m_PrefabAsset: {fileID: 0}
  m_GameObject: {fileID: 1149661059318594594}
  m_LocalRotation: {x: 0, y: 0, z: 0, w: 1}
  m_LocalPosition: {x: -13.6, y: 0.74, z: -0.14}
  m_LocalScale: {x: 1, y: 1, z: 1}
  m_Children:
  - {fileID: 1149661057786863765}
  m_Father: {fileID: 0}
  m_RootOrder: 0
  m_LocalEulerAnglesHint: {x: 0, y: 0, z: 0}
--- !u!1001 &1149661057786739221
PrefabInstance:
  m_ObjectHideFlags: 0
  serializedVersion: 2
  m_Modification:
    m_TransformParent: {fileID: 1149661059318594595}
    m_Modifications:
    - target: {fileID: 100000, guid: 5cfa6f5eb9f734b4781f4adbe974b6b9, type: 3}
      propertyPath: m_Name
      value: Gas Bottle
      objectReference: {fileID: 0}
    - target: {fileID: 400000, guid: 5cfa6f5eb9f734b4781f4adbe974b6b9, type: 3}
      propertyPath: m_RootOrder
      value: 0
      objectReference: {fileID: 0}
    - target: {fileID: 400000, guid: 5cfa6f5eb9f734b4781f4adbe974b6b9, type: 3}
      propertyPath: m_LocalPosition.x
      value: 0
      objectReference: {fileID: 0}
    - target: {fileID: 400000, guid: 5cfa6f5eb9f734b4781f4adbe974b6b9, type: 3}
      propertyPath: m_LocalPosition.y
      value: 0
      objectReference: {fileID: 0}
    - target: {fileID: 400000, guid: 5cfa6f5eb9f734b4781f4adbe974b6b9, type: 3}
      propertyPath: m_LocalPosition.z
      value: 0
      objectReference: {fileID: 0}
    - target: {fileID: 400000, guid: 5cfa6f5eb9f734b4781f4adbe974b6b9, type: 3}
      propertyPath: m_LocalRotation.w
      value: 0
      objectReference: {fileID: 0}
    - target: {fileID: 400000, guid: 5cfa6f5eb9f734b4781f4adbe974b6b9, type: 3}
      propertyPath: m_LocalRotation.x
      value: 0
      objectReference: {fileID: 0}
    - target: {fileID: 400000, guid: 5cfa6f5eb9f734b4781f4adbe974b6b9, type: 3}
      propertyPath: m_LocalRotation.y
      value: 1
      objectReference: {fileID: 0}
    - target: {fileID: 400000, guid: 5cfa6f5eb9f734b4781f4adbe974b6b9, type: 3}
      propertyPath: m_LocalRotation.z
      value: 0
      objectReference: {fileID: 0}
    - target: {fileID: 400000, guid: 5cfa6f5eb9f734b4781f4adbe974b6b9, type: 3}
      propertyPath: m_LocalEulerAnglesHint.x
      value: 0
      objectReference: {fileID: 0}
    - target: {fileID: 400000, guid: 5cfa6f5eb9f734b4781f4adbe974b6b9, type: 3}
      propertyPath: m_LocalEulerAnglesHint.y
      value: 180
      objectReference: {fileID: 0}
    - target: {fileID: 400000, guid: 5cfa6f5eb9f734b4781f4adbe974b6b9, type: 3}
      propertyPath: m_LocalEulerAnglesHint.z
      value: 0
      objectReference: {fileID: 0}
    m_RemovedComponents: []
  m_SourcePrefab: {fileID: 100100000, guid: 5cfa6f5eb9f734b4781f4adbe974b6b9, type: 3}
--- !u!1 &1149661057786838197 stripped
GameObject:
  m_CorrespondingSourceObject: {fileID: 100000, guid: 5cfa6f5eb9f734b4781f4adbe974b6b9, type: 3}
  m_PrefabInstance: {fileID: 1149661057786739221}
  m_PrefabAsset: {fileID: 0}
--- !u!4 &1149661057786863765 stripped
Transform:
  m_CorrespondingSourceObject: {fileID: 400000, guid: 5cfa6f5eb9f734b4781f4adbe974b6b9, type: 3}
  m_PrefabInstance: {fileID: 1149661057786739221}
  m_PrefabAsset: {fileID: 0}
