%YAML 1.1
%TAG !u! tag:unity3d.com,2011:
--- !u!1045 &1
EditorBuildSettings:
  m_ObjectHideFlags: 0
  serializedVersion: 2
  m_Scenes:
  - enabled: 1
    path: Assets/Scenes/Menu.unity
    guid: 8f5c0a6a688b0394cac21e3e80d0f21a
  - enabled: 1
    path: Assets/Scenes/Game.unity
    guid: 2ff286f3d6762ce41b1990d4ca6fe553
  m_configObjects: {}
